…
## Install toxvaldb
```R
library(biobricks) # devtools::install_github("biobricks-ai/biobricks-r")
biobricks::brick_install("toxvaldb", pull=T) # install & pull database
toxvaldb <- biobricks::brick_load("toxvaldb")
```
## Load the brick
```R
tb <- brick_load_arrow("toxvaldb")[[1]] |> collect()
```
## count tox types
```R
tb |> count(toxval_type,sort=T) 
# A tibble: 3,394 × 2
#    toxval_type      n
#    <chr>        <int>
#  1 LC50        172533
#  2 LD50         98647
#  3 NOEL         97567
# … with 3391 more rows
```

## count number of distinct chemicals by source
```R
tb |> group_by(source) |> summarize(num_chem=n_distinct(dtxsid)) 
tb |> arrange(-num_chem)
# # A tibble: 43 × 2
#    source                         num_chem
#    <chr>                            <int>
#  1 TEST                             13547
#  2 ECHA IUCLID                       8911
#  3 ECHA eChemPortal 2020             8309
# … with 40 more rows
```
…
